%YAML 1.1
%TAG !u! tag:unity3d.com,2011:
--- !u!29 &1
OcclusionCullingSettings:
  m_ObjectHideFlags: 0
  serializedVersion: 2
  m_OcclusionBakeSettings:
    smallestOccluder: 5
    smallestHole: 0.25
    backfaceThreshold: 100
  m_SceneGUID: 00000000000000000000000000000000
  m_OcclusionCullingData: {fileID: 0}
--- !u!104 &2
RenderSettings:
  m_ObjectHideFlags: 0
  serializedVersion: 9
  m_Fog: 0
  m_FogColor: {r: 0.5, g: 0.5, b: 0.5, a: 1}
  m_FogMode: 3
  m_FogDensity: 0.01
  m_LinearFogStart: 0
  m_LinearFogEnd: 300
  m_AmbientSkyColor: {r: 0.212, g: 0.227, b: 0.259, a: 1}
  m_AmbientEquatorColor: {r: 0.114, g: 0.125, b: 0.133, a: 1}
  m_AmbientGroundColor: {r: 0.047, g: 0.043, b: 0.035, a: 1}
  m_AmbientIntensity: 1
  m_AmbientMode: 0
  m_SubtractiveShadowColor: {r: 0.42, g: 0.478, b: 0.627, a: 1}
  m_SkyboxMaterial: {fileID: 10304, guid: 0000000000000000f000000000000000, type: 0}
  m_HaloStrength: 0.5
  m_FlareStrength: 1
  m_FlareFadeSpeed: 3
  m_HaloTexture: {fileID: 0}
  m_SpotCookie: {fileID: 10001, guid: 0000000000000000e000000000000000, type: 0}
  m_DefaultReflectionMode: 0
  m_DefaultReflectionResolution: 128
  m_ReflectionBounces: 1
  m_ReflectionIntensity: 1
  m_CustomReflection: {fileID: 0}
  m_Sun: {fileID: 0}
  m_IndirectSpecularColor: {r: 0.44657898, g: 0.4964133, b: 0.5748178, a: 1}
  m_UseRadianceAmbientProbe: 0
--- !u!157 &3
LightmapSettings:
  m_ObjectHideFlags: 0
  serializedVersion: 12
  m_GIWorkflowMode: 1
  m_GISettings:
    serializedVersion: 2
    m_BounceScale: 1
    m_IndirectOutputScale: 1
    m_AlbedoBoost: 1
    m_EnvironmentLightingMode: 0
    m_EnableBakedLightmaps: 1
    m_EnableRealtimeLightmaps: 0
  m_LightmapEditorSettings:
    serializedVersion: 12
    m_Resolution: 2
    m_BakeResolution: 40
    m_AtlasSize: 1024
    m_AO: 0
    m_AOMaxDistance: 1
    m_CompAOExponent: 1
    m_CompAOExponentDirect: 0
    m_ExtractAmbientOcclusion: 0
    m_Padding: 2
    m_LightmapParameters: {fileID: 0}
    m_LightmapsBakeMode: 1
    m_TextureCompression: 1
    m_FinalGather: 0
    m_FinalGatherFiltering: 1
    m_FinalGatherRayCount: 256
    m_ReflectionCompression: 2
    m_MixedBakeMode: 2
    m_BakeBackend: 1
    m_PVRSampling: 1
    m_PVRDirectSampleCount: 32
    m_PVRSampleCount: 512
    m_PVRBounces: 2
    m_PVREnvironmentSampleCount: 256
    m_PVREnvironmentReferencePointCount: 2048
    m_PVRFilteringMode: 1
    m_PVRDenoiserTypeDirect: 1
    m_PVRDenoiserTypeIndirect: 1
    m_PVRDenoiserTypeAO: 1
    m_PVRFilterTypeDirect: 0
    m_PVRFilterTypeIndirect: 0
    m_PVRFilterTypeAO: 0
    m_PVREnvironmentMIS: 1
    m_PVRCulling: 1
    m_PVRFilteringGaussRadiusDirect: 1
    m_PVRFilteringGaussRadiusIndirect: 5
    m_PVRFilteringGaussRadiusAO: 2
    m_PVRFilteringAtrousPositionSigmaDirect: 0.5
    m_PVRFilteringAtrousPositionSigmaIndirect: 2
    m_PVRFilteringAtrousPositionSigmaAO: 1
    m_ExportTrainingData: 0
    m_TrainingDataDestination: TrainingData
    m_LightProbeSampleCountMultiplier: 4
  m_LightingDataAsset: {fileID: 0}
  m_LightingSettings: {fileID: 0}
--- !u!196 &4
NavMeshSettings:
  serializedVersion: 2
  m_ObjectHideFlags: 0
  m_BuildSettings:
    serializedVersion: 2
    agentTypeID: 0
    agentRadius: 0.5
    agentHeight: 2
    agentSlope: 45
    agentClimb: 0.4
    ledgeDropHeight: 0
    maxJumpAcrossDistance: 0
    minRegionArea: 2
    manualCellSize: 0
    cellSize: 0.16666667
    manualTileSize: 0
    tileSize: 256
    accuratePlacement: 0
    maxJobWorkers: 0
    preserveTilesOutsideBounds: 0
    debug:
      m_Flags: 0
  m_NavMeshData: {fileID: 0}
--- !u!1001 &376805652
PrefabInstance:
  m_ObjectHideFlags: 0
  serializedVersion: 2
  m_Modification:
    m_TransformParent: {fileID: 0}
    m_Modifications:
    - target: {fileID: -8679921383154817045, guid: 58594775570f9c843b504da64a88bb4c, type: 3}
      propertyPath: m_RootOrder
      value: 14
      objectReference: {fileID: 0}
    - target: {fileID: -8679921383154817045, guid: 58594775570f9c843b504da64a88bb4c, type: 3}
      propertyPath: m_LocalPosition.x
      value: 0
      objectReference: {fileID: 0}
    - target: {fileID: -8679921383154817045, guid: 58594775570f9c843b504da64a88bb4c, type: 3}
      propertyPath: m_LocalPosition.y
      value: 0
      objectReference: {fileID: 0}
    - target: {fileID: -8679921383154817045, guid: 58594775570f9c843b504da64a88bb4c, type: 3}
      propertyPath: m_LocalPosition.z
      value: 0.618
      objectReference: {fileID: 0}
    - target: {fileID: -8679921383154817045, guid: 58594775570f9c843b504da64a88bb4c, type: 3}
      propertyPath: m_LocalRotation.w
      value: 1
      objectReference: {fileID: 0}
    - target: {fileID: -8679921383154817045, guid: 58594775570f9c843b504da64a88bb4c, type: 3}
      propertyPath: m_LocalRotation.x
      value: 0
      objectReference: {fileID: 0}
    - target: {fileID: -8679921383154817045, guid: 58594775570f9c843b504da64a88bb4c, type: 3}
      propertyPath: m_LocalRotation.y
      value: 0
      objectReference: {fileID: 0}
    - target: {fileID: -8679921383154817045, guid: 58594775570f9c843b504da64a88bb4c, type: 3}
      propertyPath: m_LocalRotation.z
      value: 0
      objectReference: {fileID: 0}
    - target: {fileID: -8679921383154817045, guid: 58594775570f9c843b504da64a88bb4c, type: 3}
      propertyPath: m_LocalEulerAnglesHint.x
      value: 0
      objectReference: {fileID: 0}
    - target: {fileID: -8679921383154817045, guid: 58594775570f9c843b504da64a88bb4c, type: 3}
      propertyPath: m_LocalEulerAnglesHint.y
      value: 0
      objectReference: {fileID: 0}
    - target: {fileID: -8679921383154817045, guid: 58594775570f9c843b504da64a88bb4c, type: 3}
      propertyPath: m_LocalEulerAnglesHint.z
      value: 0
      objectReference: {fileID: 0}
    - target: {fileID: 919132149155446097, guid: 58594775570f9c843b504da64a88bb4c, type: 3}
      propertyPath: m_Name
      value: Talking On A Cell Phone
      objectReference: {fileID: 0}
    m_RemovedComponents: []
  m_SourcePrefab: {fileID: 100100000, guid: 58594775570f9c843b504da64a88bb4c, type: 3}
--- !u!1001 &563193784
PrefabInstance:
  m_ObjectHideFlags: 0
  serializedVersion: 2
  m_Modification:
    m_TransformParent: {fileID: 0}
    m_Modifications:
    - target: {fileID: -8679921383154817045, guid: 47b9992967eb01145aa905a25c924e7a, type: 3}
      propertyPath: m_RootOrder
      value: 3
      objectReference: {fileID: 0}
    - target: {fileID: -8679921383154817045, guid: 47b9992967eb01145aa905a25c924e7a, type: 3}
      propertyPath: m_LocalPosition.x
      value: 4
      objectReference: {fileID: 0}
    - target: {fileID: -8679921383154817045, guid: 47b9992967eb01145aa905a25c924e7a, type: 3}
      propertyPath: m_LocalPosition.y
      value: 0
      objectReference: {fileID: 0}
    - target: {fileID: -8679921383154817045, guid: 47b9992967eb01145aa905a25c924e7a, type: 3}
      propertyPath: m_LocalPosition.z
      value: 11.5
      objectReference: {fileID: 0}
    - target: {fileID: -8679921383154817045, guid: 47b9992967eb01145aa905a25c924e7a, type: 3}
      propertyPath: m_LocalRotation.w
      value: 0.70710677
      objectReference: {fileID: 0}
    - target: {fileID: -8679921383154817045, guid: 47b9992967eb01145aa905a25c924e7a, type: 3}
      propertyPath: m_LocalRotation.x
      value: -0.70710677
      objectReference: {fileID: 0}
    - target: {fileID: -8679921383154817045, guid: 47b9992967eb01145aa905a25c924e7a, type: 3}
      propertyPath: m_LocalRotation.y
      value: -0.0003364384
      objectReference: {fileID: 0}
    - target: {fileID: -8679921383154817045, guid: 47b9992967eb01145aa905a25c924e7a, type: 3}
      propertyPath: m_LocalRotation.z
      value: -0.0003364384
      objectReference: {fileID: 0}
    - target: {fileID: -8679921383154817045, guid: 47b9992967eb01145aa905a25c924e7a, type: 3}
      propertyPath: m_LocalEulerAnglesHint.x
      value: -90
      objectReference: {fileID: 0}
    - target: {fileID: -8679921383154817045, guid: 47b9992967eb01145aa905a25c924e7a, type: 3}
      propertyPath: m_LocalEulerAnglesHint.y
      value: 0
      objectReference: {fileID: 0}
    - target: {fileID: -8679921383154817045, guid: 47b9992967eb01145aa905a25c924e7a, type: 3}
      propertyPath: m_LocalEulerAnglesHint.z
      value: -0.055
      objectReference: {fileID: 0}
    - target: {fileID: -7511558181221131132, guid: 47b9992967eb01145aa905a25c924e7a, type: 3}
      propertyPath: m_Materials.Array.data[0]
      value: 
      objectReference: {fileID: 2100000, guid: 8ae4454f0b9080a499d3aa7346cd4eab, type: 2}
    - target: {fileID: 919132149155446097, guid: 47b9992967eb01145aa905a25c924e7a, type: 3}
      propertyPath: m_Name
      value: Wall_4x4
      objectReference: {fileID: 0}
    m_RemovedComponents: []
  m_SourcePrefab: {fileID: 100100000, guid: 47b9992967eb01145aa905a25c924e7a, type: 3}
--- !u!1 &860928678
GameObject:
  m_ObjectHideFlags: 0
  m_CorrespondingSourceObject: {fileID: 0}
  m_PrefabInstance: {fileID: 0}
  m_PrefabAsset: {fileID: 0}
  serializedVersion: 6
  m_Component:
  - component: {fileID: 860928681}
  - component: {fileID: 860928680}
  - component: {fileID: 860928679}
  m_Layer: 0
  m_Name: Main Camera
  m_TagString: MainCamera
  m_Icon: {fileID: 0}
  m_NavMeshLayer: 0
  m_StaticEditorFlags: 0
  m_IsActive: 1
--- !u!81 &860928679
AudioListener:
  m_ObjectHideFlags: 0
  m_CorrespondingSourceObject: {fileID: 0}
  m_PrefabInstance: {fileID: 0}
  m_PrefabAsset: {fileID: 0}
  m_GameObject: {fileID: 860928678}
  m_Enabled: 1
--- !u!20 &860928680
Camera:
  m_ObjectHideFlags: 0
  m_CorrespondingSourceObject: {fileID: 0}
  m_PrefabInstance: {fileID: 0}
  m_PrefabAsset: {fileID: 0}
  m_GameObject: {fileID: 860928678}
  m_Enabled: 1
  serializedVersion: 2
  m_ClearFlags: 1
  m_BackGroundColor: {r: 0.19215687, g: 0.3019608, b: 0.4745098, a: 0}
  m_projectionMatrixMode: 1
  m_GateFitMode: 2
  m_FOVAxisMode: 0
  m_SensorSize: {x: 36, y: 24}
  m_LensShift: {x: 0, y: 0}
  m_FocalLength: 50
  m_NormalizedViewPortRect:
    serializedVersion: 2
    x: 0
    y: 0
    width: 1
    height: 1
  near clip plane: 0.3
  far clip plane: 1000
  field of view: 60
  orthographic: 0
  orthographic size: 5
  m_Depth: -1
  m_CullingMask:
    serializedVersion: 2
    m_Bits: 4294967295
  m_RenderingPath: -1
  m_TargetTexture: {fileID: 0}
  m_TargetDisplay: 0
  m_TargetEye: 3
  m_HDR: 1
  m_AllowMSAA: 1
  m_AllowDynamicResolution: 0
  m_ForceIntoRT: 0
  m_OcclusionCulling: 1
  m_StereoConvergence: 10
  m_StereoSeparation: 0.022
--- !u!4 &860928681
Transform:
  m_ObjectHideFlags: 0
  m_CorrespondingSourceObject: {fileID: 0}
  m_PrefabInstance: {fileID: 0}
  m_PrefabAsset: {fileID: 0}
  m_GameObject: {fileID: 860928678}
  m_LocalRotation: {x: 0, y: 0, z: 0, w: 1}
  m_LocalPosition: {x: 0, y: 1, z: -10}
  m_LocalScale: {x: 1, y: 1, z: 1}
  m_Children: []
  m_Father: {fileID: 0}
  m_RootOrder: 0
  m_LocalEulerAnglesHint: {x: 0, y: 0, z: 0}
--- !u!1 &1480303997
GameObject:
  m_ObjectHideFlags: 0
  m_CorrespondingSourceObject: {fileID: 0}
  m_PrefabInstance: {fileID: 0}
  m_PrefabAsset: {fileID: 0}
  serializedVersion: 6
  m_Component:
  - component: {fileID: 1480303999}
  - component: {fileID: 1480303998}
  m_Layer: 0
  m_Name: Directional Light
  m_TagString: Untagged
  m_Icon: {fileID: 0}
  m_NavMeshLayer: 0
  m_StaticEditorFlags: 0
  m_IsActive: 1
--- !u!108 &1480303998
Light:
  m_ObjectHideFlags: 0
  m_CorrespondingSourceObject: {fileID: 0}
  m_PrefabInstance: {fileID: 0}
  m_PrefabAsset: {fileID: 0}
  m_GameObject: {fileID: 1480303997}
  m_Enabled: 1
  serializedVersion: 10
  m_Type: 1
  m_Shape: 0
  m_Color: {r: 1, g: 0.95686275, b: 0.8392157, a: 1}
  m_Intensity: 1
  m_Range: 10
  m_SpotAngle: 30
  m_InnerSpotAngle: 21.80208
  m_CookieSize: 10
  m_Shadows:
    m_Type: 2
    m_Resolution: -1
    m_CustomResolution: -1
    m_Strength: 1
    m_Bias: 0.05
    m_NormalBias: 0.4
    m_NearPlane: 0.2
    m_CullingMatrixOverride:
      e00: 1
      e01: 0
      e02: 0
      e03: 0
      e10: 0
      e11: 1
      e12: 0
      e13: 0
      e20: 0
      e21: 0
      e22: 1
      e23: 0
      e30: 0
      e31: 0
      e32: 0
      e33: 1
    m_UseCullingMatrixOverride: 0
  m_Cookie: {fileID: 0}
  m_DrawHalo: 0
  m_Flare: {fileID: 0}
  m_RenderMode: 0
  m_CullingMask:
    serializedVersion: 2
    m_Bits: 4294967295
  m_RenderingLayerMask: 1
  m_Lightmapping: 4
  m_LightShadowCasterMode: 0
  m_AreaSize: {x: 1, y: 1}
  m_BounceIntensity: 1
  m_ColorTemperature: 6570
  m_UseColorTemperature: 0
  m_BoundingSphereOverride: {x: 0, y: 0, z: 0, w: 0}
  m_UseBoundingSphereOverride: 0
  m_UseViewFrustumForShadowCasterCull: 1
  m_ShadowRadius: 0
  m_ShadowAngle: 0
--- !u!4 &1480303999
Transform:
  m_ObjectHideFlags: 0
  m_CorrespondingSourceObject: {fileID: 0}
  m_PrefabInstance: {fileID: 0}
  m_PrefabAsset: {fileID: 0}
  m_GameObject: {fileID: 1480303997}
  m_LocalRotation: {x: 0.40821788, y: -0.23456968, z: 0.10938163, w: 0.8754261}
  m_LocalPosition: {x: 1.171, y: 3, z: 0}
  m_LocalScale: {x: 1, y: 1, z: 1}
  m_Children: []
  m_Father: {fileID: 0}
  m_RootOrder: 1
  m_LocalEulerAnglesHint: {x: 50, y: -30, z: 0}
--- !u!1001 &1501038917
PrefabInstance:
  m_ObjectHideFlags: 0
  serializedVersion: 2
  m_Modification:
    m_TransformParent: {fileID: 0}
    m_Modifications:
    - target: {fileID: -8679921383154817045, guid: d9e33f410d4df644cba970bf54f36141, type: 3}
      propertyPath: m_RootOrder
      value: 2
      objectReference: {fileID: 0}
    - target: {fileID: -8679921383154817045, guid: d9e33f410d4df644cba970bf54f36141, type: 3}
      propertyPath: m_LocalPosition.x
      value: 7.86
      objectReference: {fileID: 0}
    - target: {fileID: -8679921383154817045, guid: d9e33f410d4df644cba970bf54f36141, type: 3}
      propertyPath: m_LocalPosition.y
      value: 0
      objectReference: {fileID: 0}
    - target: {fileID: -8679921383154817045, guid: d9e33f410d4df644cba970bf54f36141, type: 3}
      propertyPath: m_LocalPosition.z
      value: 11.5
      objectReference: {fileID: 0}
    - target: {fileID: -8679921383154817045, guid: d9e33f410d4df644cba970bf54f36141, type: 3}
      propertyPath: m_LocalRotation.w
      value: 0.7071067
      objectReference: {fileID: 0}
    - target: {fileID: -8679921383154817045, guid: d9e33f410d4df644cba970bf54f36141, type: 3}
      propertyPath: m_LocalRotation.x
      value: -0.7071068
      objectReference: {fileID: 0}
    - target: {fileID: -8679921383154817045, guid: d9e33f410d4df644cba970bf54f36141, type: 3}
      propertyPath: m_LocalRotation.y
      value: 0
      objectReference: {fileID: 0}
    - target: {fileID: -8679921383154817045, guid: d9e33f410d4df644cba970bf54f36141, type: 3}
      propertyPath: m_LocalRotation.z
      value: -0
      objectReference: {fileID: 0}
    - target: {fileID: -8679921383154817045, guid: d9e33f410d4df644cba970bf54f36141, type: 3}
      propertyPath: m_LocalEulerAnglesHint.x
      value: 0
      objectReference: {fileID: 0}
    - target: {fileID: -8679921383154817045, guid: d9e33f410d4df644cba970bf54f36141, type: 3}
      propertyPath: m_LocalEulerAnglesHint.y
      value: 0
      objectReference: {fileID: 0}
    - target: {fileID: -8679921383154817045, guid: d9e33f410d4df644cba970bf54f36141, type: 3}
      propertyPath: m_LocalEulerAnglesHint.z
      value: 0
      objectReference: {fileID: 0}
    - target: {fileID: 919132149155446097, guid: d9e33f410d4df644cba970bf54f36141, type: 3}
      propertyPath: m_Name
      value: Wall_2x4
      objectReference: {fileID: 0}
    m_RemovedComponents: []
  m_SourcePrefab: {fileID: 100100000, guid: d9e33f410d4df644cba970bf54f36141, type: 3}
--- !u!1001 &8457512502720348
PrefabInstance:
  m_ObjectHideFlags: 0
  serializedVersion: 2
  m_Modification:
    m_TransformParent: {fileID: 0}
    m_Modifications:
    - target: {fileID: 8457514027691764, guid: b9a8cef50b76e9d43b66ef179144bb84, type: 3}
      propertyPath: m_Name
      value: 1M Light
      objectReference: {fileID: 0}
    - target: {fileID: 8457514027691765, guid: b9a8cef50b76e9d43b66ef179144bb84, type: 3}
      propertyPath: m_RootOrder
      value: 7
      objectReference: {fileID: 0}
    - target: {fileID: 8457514027691765, guid: b9a8cef50b76e9d43b66ef179144bb84, type: 3}
      propertyPath: m_LocalPosition.x
      value: 4
      objectReference: {fileID: 0}
    - target: {fileID: 8457514027691765, guid: b9a8cef50b76e9d43b66ef179144bb84, type: 3}
      propertyPath: m_LocalPosition.y
      value: 0
      objectReference: {fileID: 0}
    - target: {fileID: 8457514027691765, guid: b9a8cef50b76e9d43b66ef179144bb84, type: 3}
      propertyPath: m_LocalPosition.z
      value: 7.716
      objectReference: {fileID: 0}
    - target: {fileID: 8457514027691765, guid: b9a8cef50b76e9d43b66ef179144bb84, type: 3}
      propertyPath: m_LocalRotation.w
      value: 0.70720726
      objectReference: {fileID: 0}
    - target: {fileID: 8457514027691765, guid: b9a8cef50b76e9d43b66ef179144bb84, type: 3}
      propertyPath: m_LocalRotation.x
      value: -0
      objectReference: {fileID: 0}
    - target: {fileID: 8457514027691765, guid: b9a8cef50b76e9d43b66ef179144bb84, type: 3}
      propertyPath: m_LocalRotation.y
      value: 0.7070063
      objectReference: {fileID: 0}
    - target: {fileID: 8457514027691765, guid: b9a8cef50b76e9d43b66ef179144bb84, type: 3}
      propertyPath: m_LocalRotation.z
      value: -0
      objectReference: {fileID: 0}
    - target: {fileID: 8457514027691765, guid: b9a8cef50b76e9d43b66ef179144bb84, type: 3}
      propertyPath: m_LocalEulerAnglesHint.x
      value: 0
      objectReference: {fileID: 0}
    - target: {fileID: 8457514027691765, guid: b9a8cef50b76e9d43b66ef179144bb84, type: 3}
      propertyPath: m_LocalEulerAnglesHint.y
      value: 89.984
      objectReference: {fileID: 0}
    - target: {fileID: 8457514027691765, guid: b9a8cef50b76e9d43b66ef179144bb84, type: 3}
      propertyPath: m_LocalEulerAnglesHint.z
      value: 0
      objectReference: {fileID: 0}
    m_RemovedComponents: []
  m_SourcePrefab: {fileID: 100100000, guid: b9a8cef50b76e9d43b66ef179144bb84, type: 3}
--- !u!1001 &141890210752243059
PrefabInstance:
  m_ObjectHideFlags: 0
  serializedVersion: 2
  m_Modification:
    m_TransformParent: {fileID: 0}
    m_Modifications:
    - target: {fileID: 3022575224511686978, guid: 3d62f044e2b66e24e8ec92a865ef6539, type: 3}
      propertyPath: m_RootOrder
      value: 8
      objectReference: {fileID: 0}
    - target: {fileID: 3022575224511686978, guid: 3d62f044e2b66e24e8ec92a865ef6539, type: 3}
      propertyPath: m_LocalPosition.x
      value: 6.75
      objectReference: {fileID: 0}
    - target: {fileID: 3022575224511686978, guid: 3d62f044e2b66e24e8ec92a865ef6539, type: 3}
      propertyPath: m_LocalPosition.y
      value: 0
      objectReference: {fileID: 0}
    - target: {fileID: 3022575224511686978, guid: 3d62f044e2b66e24e8ec92a865ef6539, type: 3}
      propertyPath: m_LocalPosition.z
      value: 9
      objectReference: {fileID: 0}
    - target: {fileID: 3022575224511686978, guid: 3d62f044e2b66e24e8ec92a865ef6539, type: 3}
      propertyPath: m_LocalRotation.w
      value: 0.70720726
      objectReference: {fileID: 0}
    - target: {fileID: 3022575224511686978, guid: 3d62f044e2b66e24e8ec92a865ef6539, type: 3}
      propertyPath: m_LocalRotation.x
      value: -0
      objectReference: {fileID: 0}
    - target: {fileID: 3022575224511686978, guid: 3d62f044e2b66e24e8ec92a865ef6539, type: 3}
      propertyPath: m_LocalRotation.y
      value: 0.7070063
      objectReference: {fileID: 0}
    - target: {fileID: 3022575224511686978, guid: 3d62f044e2b66e24e8ec92a865ef6539, type: 3}
      propertyPath: m_LocalRotation.z
      value: -0
      objectReference: {fileID: 0}
    - target: {fileID: 3022575224511686978, guid: 3d62f044e2b66e24e8ec92a865ef6539, type: 3}
      propertyPath: m_LocalEulerAnglesHint.x
      value: 0
      objectReference: {fileID: 0}
    - target: {fileID: 3022575224511686978, guid: 3d62f044e2b66e24e8ec92a865ef6539, type: 3}
      propertyPath: m_LocalEulerAnglesHint.y
      value: 89.984
      objectReference: {fileID: 0}
    - target: {fileID: 3022575224511686978, guid: 3d62f044e2b66e24e8ec92a865ef6539, type: 3}
      propertyPath: m_LocalEulerAnglesHint.z
      value: 0
      objectReference: {fileID: 0}
    - target: {fileID: 3022575224511686979, guid: 3d62f044e2b66e24e8ec92a865ef6539, type: 3}
      propertyPath: m_Name
      value: '2M Light '
      objectReference: {fileID: 0}
    m_RemovedComponents: []
  m_SourcePrefab: {fileID: 100100000, guid: 3d62f044e2b66e24e8ec92a865ef6539, type: 3}
--- !u!1001 &971913363541631387
PrefabInstance:
  m_ObjectHideFlags: 0
  serializedVersion: 2
  m_Modification:
    m_TransformParent: {fileID: 0}
    m_Modifications:
    - target: {fileID: 971913365038176632, guid: 4bde33e61b25c5d4380471a800a1707f, type: 3}
      propertyPath: m_Name
      value: LogoSpot
      objectReference: {fileID: 0}
    - target: {fileID: 971913365038176639, guid: 4bde33e61b25c5d4380471a800a1707f, type: 3}
      propertyPath: m_RootOrder
      value: 17
      objectReference: {fileID: 0}
    - target: {fileID: 971913365038176639, guid: 4bde33e61b25c5d4380471a800a1707f, type: 3}
      propertyPath: m_LocalPosition.x
      value: 0
      objectReference: {fileID: 0}
    - target: {fileID: 971913365038176639, guid: 4bde33e61b25c5d4380471a800a1707f, type: 3}
      propertyPath: m_LocalPosition.y
      value: 0
      objectReference: {fileID: 0}
    - target: {fileID: 971913365038176639, guid: 4bde33e61b25c5d4380471a800a1707f, type: 3}
      propertyPath: m_LocalPosition.z
      value: 0
      objectReference: {fileID: 0}
    - target: {fileID: 971913365038176639, guid: 4bde33e61b25c5d4380471a800a1707f, type: 3}
      propertyPath: m_LocalRotation.w
      value: 1
      objectReference: {fileID: 0}
    - target: {fileID: 971913365038176639, guid: 4bde33e61b25c5d4380471a800a1707f, type: 3}
      propertyPath: m_LocalRotation.x
      value: 0
      objectReference: {fileID: 0}
    - target: {fileID: 971913365038176639, guid: 4bde33e61b25c5d4380471a800a1707f, type: 3}
      propertyPath: m_LocalRotation.y
      value: 0
      objectReference: {fileID: 0}
    - target: {fileID: 971913365038176639, guid: 4bde33e61b25c5d4380471a800a1707f, type: 3}
      propertyPath: m_LocalRotation.z
      value: 0
      objectReference: {fileID: 0}
    - target: {fileID: 971913365038176639, guid: 4bde33e61b25c5d4380471a800a1707f, type: 3}
      propertyPath: m_LocalEulerAnglesHint.x
      value: 0
      objectReference: {fileID: 0}
    - target: {fileID: 971913365038176639, guid: 4bde33e61b25c5d4380471a800a1707f, type: 3}
      propertyPath: m_LocalEulerAnglesHint.y
      value: 0
      objectReference: {fileID: 0}
    - target: {fileID: 971913365038176639, guid: 4bde33e61b25c5d4380471a800a1707f, type: 3}
      propertyPath: m_LocalEulerAnglesHint.z
      value: 0
      objectReference: {fileID: 0}
    m_RemovedComponents: []
  m_SourcePrefab: {fileID: 100100000, guid: 4bde33e61b25c5d4380471a800a1707f, type: 3}
--- !u!1001 &2973778234237707451
PrefabInstance:
  m_ObjectHideFlags: 0
  serializedVersion: 2
  m_Modification:
    m_TransformParent: {fileID: 0}
    m_Modifications:
    - target: {fileID: 2973778234174795227, guid: 2ea632386176d0641a5d95cb855c9614, type: 3}
      propertyPath: m_RootOrder
      value: 13
      objectReference: {fileID: 0}
    - target: {fileID: 2973778234174795227, guid: 2ea632386176d0641a5d95cb855c9614, type: 3}
      propertyPath: m_LocalPosition.x
      value: 0
      objectReference: {fileID: 0}
    - target: {fileID: 2973778234174795227, guid: 2ea632386176d0641a5d95cb855c9614, type: 3}
      propertyPath: m_LocalPosition.y
      value: 0
      objectReference: {fileID: 0}
    - target: {fileID: 2973778234174795227, guid: 2ea632386176d0641a5d95cb855c9614, type: 3}
      propertyPath: m_LocalPosition.z
      value: 4.23
      objectReference: {fileID: 0}
    - target: {fileID: 2973778234174795227, guid: 2ea632386176d0641a5d95cb855c9614, type: 3}
      propertyPath: m_LocalRotation.w
      value: 1
      objectReference: {fileID: 0}
    - target: {fileID: 2973778234174795227, guid: 2ea632386176d0641a5d95cb855c9614, type: 3}
      propertyPath: m_LocalRotation.x
      value: 0
      objectReference: {fileID: 0}
    - target: {fileID: 2973778234174795227, guid: 2ea632386176d0641a5d95cb855c9614, type: 3}
      propertyPath: m_LocalRotation.y
      value: 0
      objectReference: {fileID: 0}
    - target: {fileID: 2973778234174795227, guid: 2ea632386176d0641a5d95cb855c9614, type: 3}
      propertyPath: m_LocalRotation.z
      value: 0
      objectReference: {fileID: 0}
    - target: {fileID: 2973778234174795227, guid: 2ea632386176d0641a5d95cb855c9614, type: 3}
      propertyPath: m_LocalEulerAnglesHint.x
      value: 0
      objectReference: {fileID: 0}
    - target: {fileID: 2973778234174795227, guid: 2ea632386176d0641a5d95cb855c9614, type: 3}
      propertyPath: m_LocalEulerAnglesHint.y
      value: 0
      objectReference: {fileID: 0}
    - target: {fileID: 2973778234174795227, guid: 2ea632386176d0641a5d95cb855c9614, type: 3}
      propertyPath: m_LocalEulerAnglesHint.z
      value: 0
      objectReference: {fileID: 0}
    - target: {fileID: 2973778234174795236, guid: 2ea632386176d0641a5d95cb855c9614, type: 3}
      propertyPath: m_Name
      value: StairSteps
      objectReference: {fileID: 0}
    m_RemovedComponents: []
  m_SourcePrefab: {fileID: 100100000, guid: 2ea632386176d0641a5d95cb855c9614, type: 3}
--- !u!1001 &3335292021499114661
PrefabInstance:
  m_ObjectHideFlags: 0
  serializedVersion: 2
  m_Modification:
    m_TransformParent: {fileID: 0}
    m_Modifications:
    - target: {fileID: 5798078006951514184, guid: 1983a88ddfc0acb43a733fe60c9b727b, type: 3}
      propertyPath: m_RootOrder
      value: 11
      objectReference: {fileID: 0}
    - target: {fileID: 5798078006951514184, guid: 1983a88ddfc0acb43a733fe60c9b727b, type: 3}
      propertyPath: m_LocalPosition.x
      value: -0.648
      objectReference: {fileID: 0}
    - target: {fileID: 5798078006951514184, guid: 1983a88ddfc0acb43a733fe60c9b727b, type: 3}
      propertyPath: m_LocalPosition.y
      value: 0
      objectReference: {fileID: 0}
    - target: {fileID: 5798078006951514184, guid: 1983a88ddfc0acb43a733fe60c9b727b, type: 3}
      propertyPath: m_LocalPosition.z
      value: 3.85
      objectReference: {fileID: 0}
    - target: {fileID: 5798078006951514184, guid: 1983a88ddfc0acb43a733fe60c9b727b, type: 3}
      propertyPath: m_LocalRotation.w
      value: 1
      objectReference: {fileID: 0}
    - target: {fileID: 5798078006951514184, guid: 1983a88ddfc0acb43a733fe60c9b727b, type: 3}
      propertyPath: m_LocalRotation.x
      value: 0
      objectReference: {fileID: 0}
    - target: {fileID: 5798078006951514184, guid: 1983a88ddfc0acb43a733fe60c9b727b, type: 3}
      propertyPath: m_LocalRotation.y
      value: 0
      objectReference: {fileID: 0}
    - target: {fileID: 5798078006951514184, guid: 1983a88ddfc0acb43a733fe60c9b727b, type: 3}
      propertyPath: m_LocalRotation.z
      value: 0
      objectReference: {fileID: 0}
    - target: {fileID: 5798078006951514184, guid: 1983a88ddfc0acb43a733fe60c9b727b, type: 3}
      propertyPath: m_LocalEulerAnglesHint.x
      value: 0
      objectReference: {fileID: 0}
    - target: {fileID: 5798078006951514184, guid: 1983a88ddfc0acb43a733fe60c9b727b, type: 3}
      propertyPath: m_LocalEulerAnglesHint.y
      value: 0
      objectReference: {fileID: 0}
    - target: {fileID: 5798078006951514184, guid: 1983a88ddfc0acb43a733fe60c9b727b, type: 3}
      propertyPath: m_LocalEulerAnglesHint.z
      value: 0
      objectReference: {fileID: 0}
    - target: {fileID: 5832690945038434163, guid: 1983a88ddfc0acb43a733fe60c9b727b, type: 3}
      propertyPath: m_Name
      value: CupBoard
      objectReference: {fileID: 0}
    m_RemovedComponents: []
  m_SourcePrefab: {fileID: 100100000, guid: 1983a88ddfc0acb43a733fe60c9b727b, type: 3}
--- !u!1001 &3699691336839336617
PrefabInstance:
  m_ObjectHideFlags: 0
  serializedVersion: 2
  m_Modification:
    m_TransformParent: {fileID: 0}
    m_Modifications:
    - target: {fileID: 3699691337020087238, guid: bd5db23968341ef44919bcd555d552a5, type: 3}
      propertyPath: m_RootOrder
      value: 10
      objectReference: {fileID: 0}
    - target: {fileID: 3699691337020087238, guid: bd5db23968341ef44919bcd555d552a5, type: 3}
      propertyPath: m_LocalPosition.x
      value: -2.25
      objectReference: {fileID: 0}
    - target: {fileID: 3699691337020087238, guid: bd5db23968341ef44919bcd555d552a5, type: 3}
      propertyPath: m_LocalPosition.y
      value: 0
      objectReference: {fileID: 0}
    - target: {fileID: 3699691337020087238, guid: bd5db23968341ef44919bcd555d552a5, type: 3}
      propertyPath: m_LocalPosition.z
      value: 4.5
      objectReference: {fileID: 0}
    - target: {fileID: 3699691337020087238, guid: bd5db23968341ef44919bcd555d552a5, type: 3}
      propertyPath: m_LocalRotation.w
      value: 1
      objectReference: {fileID: 0}
    - target: {fileID: 3699691337020087238, guid: bd5db23968341ef44919bcd555d552a5, type: 3}
      propertyPath: m_LocalRotation.x
      value: 0
      objectReference: {fileID: 0}
    - target: {fileID: 3699691337020087238, guid: bd5db23968341ef44919bcd555d552a5, type: 3}
      propertyPath: m_LocalRotation.y
      value: 0
      objectReference: {fileID: 0}
    - target: {fileID: 3699691337020087238, guid: bd5db23968341ef44919bcd555d552a5, type: 3}
      propertyPath: m_LocalRotation.z
      value: 0
      objectReference: {fileID: 0}
    - target: {fileID: 3699691337020087238, guid: bd5db23968341ef44919bcd555d552a5, type: 3}
      propertyPath: m_LocalEulerAnglesHint.x
      value: 0
      objectReference: {fileID: 0}
    - target: {fileID: 3699691337020087238, guid: bd5db23968341ef44919bcd555d552a5, type: 3}
      propertyPath: m_LocalEulerAnglesHint.y
      value: 0
      objectReference: {fileID: 0}
    - target: {fileID: 3699691337020087238, guid: bd5db23968341ef44919bcd555d552a5, type: 3}
      propertyPath: m_LocalEulerAnglesHint.z
      value: 0
      objectReference: {fileID: 0}
    - target: {fileID: 3699691337020087239, guid: bd5db23968341ef44919bcd555d552a5, type: 3}
      propertyPath: m_Name
      value: Costumer Table
      objectReference: {fileID: 0}
    m_RemovedComponents: []
  m_SourcePrefab: {fileID: 100100000, guid: bd5db23968341ef44919bcd555d552a5, type: 3}
--- !u!1001 &4202646381502887358
PrefabInstance:
  m_ObjectHideFlags: 0
  serializedVersion: 2
  m_Modification:
    m_TransformParent: {fileID: 0}
    m_Modifications:
    - target: {fileID: 4202646383053950586, guid: 859f14364256ece46aecf43a89019000, type: 3}
      propertyPath: m_Name
      value: StairsRails
      objectReference: {fileID: 0}
    - target: {fileID: 4202646383053950587, guid: 859f14364256ece46aecf43a89019000, type: 3}
      propertyPath: m_RootOrder
      value: 15
      objectReference: {fileID: 0}
    - target: {fileID: 4202646383053950587, guid: 859f14364256ece46aecf43a89019000, type: 3}
      propertyPath: m_LocalPosition.x
      value: 0
      objectReference: {fileID: 0}
    - target: {fileID: 4202646383053950587, guid: 859f14364256ece46aecf43a89019000, type: 3}
      propertyPath: m_LocalPosition.y
      value: 0
      objectReference: {fileID: 0}
    - target: {fileID: 4202646383053950587, guid: 859f14364256ece46aecf43a89019000, type: 3}
      propertyPath: m_LocalPosition.z
      value: 0
      objectReference: {fileID: 0}
    - target: {fileID: 4202646383053950587, guid: 859f14364256ece46aecf43a89019000, type: 3}
      propertyPath: m_LocalRotation.w
      value: 1
      objectReference: {fileID: 0}
    - target: {fileID: 4202646383053950587, guid: 859f14364256ece46aecf43a89019000, type: 3}
      propertyPath: m_LocalRotation.x
      value: 0
      objectReference: {fileID: 0}
    - target: {fileID: 4202646383053950587, guid: 859f14364256ece46aecf43a89019000, type: 3}
      propertyPath: m_LocalRotation.y
      value: 0
      objectReference: {fileID: 0}
    - target: {fileID: 4202646383053950587, guid: 859f14364256ece46aecf43a89019000, type: 3}
      propertyPath: m_LocalRotation.z
      value: 0
      objectReference: {fileID: 0}
    - target: {fileID: 4202646383053950587, guid: 859f14364256ece46aecf43a89019000, type: 3}
      propertyPath: m_LocalEulerAnglesHint.x
      value: 0
      objectReference: {fileID: 0}
    - target: {fileID: 4202646383053950587, guid: 859f14364256ece46aecf43a89019000, type: 3}
      propertyPath: m_LocalEulerAnglesHint.y
      value: 0
      objectReference: {fileID: 0}
    - target: {fileID: 4202646383053950587, guid: 859f14364256ece46aecf43a89019000, type: 3}
      propertyPath: m_LocalEulerAnglesHint.z
      value: 0
      objectReference: {fileID: 0}
    m_RemovedComponents: []
  m_SourcePrefab: {fileID: 100100000, guid: 859f14364256ece46aecf43a89019000, type: 3}
--- !u!1001 &4302201195791639362
PrefabInstance:
  m_ObjectHideFlags: 0
  serializedVersion: 2
  m_Modification:
    m_TransformParent: {fileID: 0}
    m_Modifications:
    - target: {fileID: 4299373183674522032, guid: 83f6da21c07cd93499e097e6030a188c, type: 3}
      propertyPath: m_RootOrder
      value: 9
      objectReference: {fileID: 0}
    - target: {fileID: 4299373183674522032, guid: 83f6da21c07cd93499e097e6030a188c, type: 3}
      propertyPath: m_LocalPosition.x
      value: 4
      objectReference: {fileID: 0}
    - target: {fileID: 4299373183674522032, guid: 83f6da21c07cd93499e097e6030a188c, type: 3}
      propertyPath: m_LocalPosition.y
      value: 0
      objectReference: {fileID: 0}
    - target: {fileID: 4299373183674522032, guid: 83f6da21c07cd93499e097e6030a188c, type: 3}
      propertyPath: m_LocalPosition.z
      value: 9
      objectReference: {fileID: 0}
    - target: {fileID: 4299373183674522032, guid: 83f6da21c07cd93499e097e6030a188c, type: 3}
      propertyPath: m_LocalRotation.w
      value: 0.70720726
      objectReference: {fileID: 0}
    - target: {fileID: 4299373183674522032, guid: 83f6da21c07cd93499e097e6030a188c, type: 3}
      propertyPath: m_LocalRotation.x
      value: -0
      objectReference: {fileID: 0}
    - target: {fileID: 4299373183674522032, guid: 83f6da21c07cd93499e097e6030a188c, type: 3}
      propertyPath: m_LocalRotation.y
      value: 0.7070063
      objectReference: {fileID: 0}
    - target: {fileID: 4299373183674522032, guid: 83f6da21c07cd93499e097e6030a188c, type: 3}
      propertyPath: m_LocalRotation.z
      value: -0
      objectReference: {fileID: 0}
    - target: {fileID: 4299373183674522032, guid: 83f6da21c07cd93499e097e6030a188c, type: 3}
      propertyPath: m_LocalEulerAnglesHint.x
      value: 0
      objectReference: {fileID: 0}
    - target: {fileID: 4299373183674522032, guid: 83f6da21c07cd93499e097e6030a188c, type: 3}
      propertyPath: m_LocalEulerAnglesHint.y
      value: 89.984
      objectReference: {fileID: 0}
    - target: {fileID: 4299373183674522032, guid: 83f6da21c07cd93499e097e6030a188c, type: 3}
      propertyPath: m_LocalEulerAnglesHint.z
      value: 0
      objectReference: {fileID: 0}
    - target: {fileID: 4299373183674522033, guid: 83f6da21c07cd93499e097e6030a188c, type: 3}
      propertyPath: m_Name
      value: .25M Light
      objectReference: {fileID: 0}
    m_RemovedComponents: []
  m_SourcePrefab: {fileID: 100100000, guid: 83f6da21c07cd93499e097e6030a188c, type: 3}
--- !u!1001 &4306452836383940341
PrefabInstance:
  m_ObjectHideFlags: 0
  serializedVersion: 2
  m_Modification:
    m_TransformParent: {fileID: 0}
    m_Modifications:
    - target: {fileID: 4306452836109627758, guid: 7623077b70295af49b9c5a223a3b4654, type: 3}
      propertyPath: m_RootOrder
      value: 4
      objectReference: {fileID: 0}
    - target: {fileID: 4306452836109627758, guid: 7623077b70295af49b9c5a223a3b4654, type: 3}
      propertyPath: m_LocalPosition.x
      value: 0
      objectReference: {fileID: 0}
    - target: {fileID: 4306452836109627758, guid: 7623077b70295af49b9c5a223a3b4654, type: 3}
      propertyPath: m_LocalPosition.y
      value: 0
      objectReference: {fileID: 0}
    - target: {fileID: 4306452836109627758, guid: 7623077b70295af49b9c5a223a3b4654, type: 3}
      propertyPath: m_LocalPosition.z
      value: 9.75
      objectReference: {fileID: 0}
    - target: {fileID: 4306452836109627758, guid: 7623077b70295af49b9c5a223a3b4654, type: 3}
      propertyPath: m_LocalRotation.w
      value: 1
      objectReference: {fileID: 0}
    - target: {fileID: 4306452836109627758, guid: 7623077b70295af49b9c5a223a3b4654, type: 3}
      propertyPath: m_LocalRotation.x
      value: 0
      objectReference: {fileID: 0}
    - target: {fileID: 4306452836109627758, guid: 7623077b70295af49b9c5a223a3b4654, type: 3}
      propertyPath: m_LocalRotation.y
      value: 0
      objectReference: {fileID: 0}
    - target: {fileID: 4306452836109627758, guid: 7623077b70295af49b9c5a223a3b4654, type: 3}
      propertyPath: m_LocalRotation.z
      value: 0
      objectReference: {fileID: 0}
    - target: {fileID: 4306452836109627758, guid: 7623077b70295af49b9c5a223a3b4654, type: 3}
      propertyPath: m_LocalEulerAnglesHint.x
      value: 0
      objectReference: {fileID: 0}
    - target: {fileID: 4306452836109627758, guid: 7623077b70295af49b9c5a223a3b4654, type: 3}
      propertyPath: m_LocalEulerAnglesHint.y
      value: 0
      objectReference: {fileID: 0}
    - target: {fileID: 4306452836109627758, guid: 7623077b70295af49b9c5a223a3b4654, type: 3}
      propertyPath: m_LocalEulerAnglesHint.z
      value: 0
      objectReference: {fileID: 0}
    - target: {fileID: 4306452836109627759, guid: 7623077b70295af49b9c5a223a3b4654, type: 3}
      propertyPath: m_Name
      value: Sofaseats
      objectReference: {fileID: 0}
    m_RemovedComponents: []
  m_SourcePrefab: {fileID: 100100000, guid: 7623077b70295af49b9c5a223a3b4654, type: 3}
--- !u!1001 &4891768902244512666
PrefabInstance:
  m_ObjectHideFlags: 0
  serializedVersion: 2
  m_Modification:
    m_TransformParent: {fileID: 0}
    m_Modifications:
    - target: {fileID: 4208093863254851759, guid: f4bea4eb485794246b9019633d65d98a, type: 3}
      propertyPath: m_Name
      value: Small Table
      objectReference: {fileID: 0}
    - target: {fileID: 8949913039237165988, guid: f4bea4eb485794246b9019633d65d98a, type: 3}
      propertyPath: m_RootOrder
      value: 6
      objectReference: {fileID: 0}
    - target: {fileID: 8949913039237165988, guid: f4bea4eb485794246b9019633d65d98a, type: 3}
      propertyPath: m_LocalPosition.x
      value: 0
      objectReference: {fileID: 0}
    - target: {fileID: 8949913039237165988, guid: f4bea4eb485794246b9019633d65d98a, type: 3}
      propertyPath: m_LocalPosition.y
      value: 0
      objectReference: {fileID: 0}
    - target: {fileID: 8949913039237165988, guid: f4bea4eb485794246b9019633d65d98a, type: 3}
      propertyPath: m_LocalPosition.z
      value: 5.75
      objectReference: {fileID: 0}
    - target: {fileID: 8949913039237165988, guid: f4bea4eb485794246b9019633d65d98a, type: 3}
      propertyPath: m_LocalRotation.w
      value: 1
      objectReference: {fileID: 0}
    - target: {fileID: 8949913039237165988, guid: f4bea4eb485794246b9019633d65d98a, type: 3}
      propertyPath: m_LocalRotation.x
      value: 0
      objectReference: {fileID: 0}
    - target: {fileID: 8949913039237165988, guid: f4bea4eb485794246b9019633d65d98a, type: 3}
      propertyPath: m_LocalRotation.y
      value: 0
      objectReference: {fileID: 0}
    - target: {fileID: 8949913039237165988, guid: f4bea4eb485794246b9019633d65d98a, type: 3}
      propertyPath: m_LocalRotation.z
      value: 0
      objectReference: {fileID: 0}
    - target: {fileID: 8949913039237165988, guid: f4bea4eb485794246b9019633d65d98a, type: 3}
      propertyPath: m_LocalEulerAnglesHint.x
      value: 0
      objectReference: {fileID: 0}
    - target: {fileID: 8949913039237165988, guid: f4bea4eb485794246b9019633d65d98a, type: 3}
      propertyPath: m_LocalEulerAnglesHint.y
      value: 0
      objectReference: {fileID: 0}
    - target: {fileID: 8949913039237165988, guid: f4bea4eb485794246b9019633d65d98a, type: 3}
      propertyPath: m_LocalEulerAnglesHint.z
      value: 0
      objectReference: {fileID: 0}
    m_RemovedComponents: []
  m_SourcePrefab: {fileID: 100100000, guid: f4bea4eb485794246b9019633d65d98a, type: 3}
--- !u!1001 &5668649912896886392
PrefabInstance:
  m_ObjectHideFlags: 0
  serializedVersion: 2
  m_Modification:
    m_TransformParent: {fileID: 0}
    m_Modifications:
    - target: {fileID: 3818767491969377671, guid: 6cae220fbcb949442a88670ec6c6a8dd, type: 3}
      propertyPath: m_Name
      value: SingleLamp
      objectReference: {fileID: 0}
    - target: {fileID: 4282709968309598899, guid: 6cae220fbcb949442a88670ec6c6a8dd, type: 3}
      propertyPath: m_RootOrder
      value: 16
      objectReference: {fileID: 0}
    - target: {fileID: 4282709968309598899, guid: 6cae220fbcb949442a88670ec6c6a8dd, type: 3}
      propertyPath: m_LocalPosition.x
      value: 0
      objectReference: {fileID: 0}
    - target: {fileID: 4282709968309598899, guid: 6cae220fbcb949442a88670ec6c6a8dd, type: 3}
      propertyPath: m_LocalPosition.y
      value: 0
      objectReference: {fileID: 0}
    - target: {fileID: 4282709968309598899, guid: 6cae220fbcb949442a88670ec6c6a8dd, type: 3}
      propertyPath: m_LocalPosition.z
      value: 0
      objectReference: {fileID: 0}
    - target: {fileID: 4282709968309598899, guid: 6cae220fbcb949442a88670ec6c6a8dd, type: 3}
      propertyPath: m_LocalRotation.w
      value: 1
      objectReference: {fileID: 0}
    - target: {fileID: 4282709968309598899, guid: 6cae220fbcb949442a88670ec6c6a8dd, type: 3}
      propertyPath: m_LocalRotation.x
      value: 0
      objectReference: {fileID: 0}
    - target: {fileID: 4282709968309598899, guid: 6cae220fbcb949442a88670ec6c6a8dd, type: 3}
      propertyPath: m_LocalRotation.y
      value: 0
      objectReference: {fileID: 0}
    - target: {fileID: 4282709968309598899, guid: 6cae220fbcb949442a88670ec6c6a8dd, type: 3}
      propertyPath: m_LocalRotation.z
      value: 0
      objectReference: {fileID: 0}
    - target: {fileID: 4282709968309598899, guid: 6cae220fbcb949442a88670ec6c6a8dd, type: 3}
      propertyPath: m_LocalEulerAnglesHint.x
      value: 0
      objectReference: {fileID: 0}
    - target: {fileID: 4282709968309598899, guid: 6cae220fbcb949442a88670ec6c6a8dd, type: 3}
      propertyPath: m_LocalEulerAnglesHint.y
      value: 0
      objectReference: {fileID: 0}
    - target: {fileID: 4282709968309598899, guid: 6cae220fbcb949442a88670ec6c6a8dd, type: 3}
      propertyPath: m_LocalEulerAnglesHint.z
      value: 0
      objectReference: {fileID: 0}
    m_RemovedComponents: []
  m_SourcePrefab: {fileID: 100100000, guid: 6cae220fbcb949442a88670ec6c6a8dd, type: 3}
--- !u!1001 &7067751087212839042
PrefabInstance:
  m_ObjectHideFlags: 0
  serializedVersion: 2
  m_Modification:
    m_TransformParent: {fileID: 0}
    m_Modifications:
    - target: {fileID: 7067751086999654232, guid: 1716e0e1a13fadf4a9071349621d216f, type: 3}
      propertyPath: m_Name
      value: Vent_Prefab
      objectReference: {fileID: 0}
    - target: {fileID: 7067751086999654233, guid: 1716e0e1a13fadf4a9071349621d216f, type: 3}
      propertyPath: m_RootOrder
      value: 12
      objectReference: {fileID: 0}
    - target: {fileID: 7067751086999654233, guid: 1716e0e1a13fadf4a9071349621d216f, type: 3}
      propertyPath: m_LocalPosition.x
      value: 0
      objectReference: {fileID: 0}
    - target: {fileID: 7067751086999654233, guid: 1716e0e1a13fadf4a9071349621d216f, type: 3}
      propertyPath: m_LocalPosition.y
      value: 0
      objectReference: {fileID: 0}
    - target: {fileID: 7067751086999654233, guid: 1716e0e1a13fadf4a9071349621d216f, type: 3}
      propertyPath: m_LocalPosition.z
      value: 4.847
      objectReference: {fileID: 0}
    - target: {fileID: 7067751086999654233, guid: 1716e0e1a13fadf4a9071349621d216f, type: 3}
      propertyPath: m_LocalRotation.w
      value: 1
      objectReference: {fileID: 0}
    - target: {fileID: 7067751086999654233, guid: 1716e0e1a13fadf4a9071349621d216f, type: 3}
      propertyPath: m_LocalRotation.x
      value: 0
      objectReference: {fileID: 0}
    - target: {fileID: 7067751086999654233, guid: 1716e0e1a13fadf4a9071349621d216f, type: 3}
      propertyPath: m_LocalRotation.y
      value: 0
      objectReference: {fileID: 0}
    - target: {fileID: 7067751086999654233, guid: 1716e0e1a13fadf4a9071349621d216f, type: 3}
      propertyPath: m_LocalRotation.z
      value: 0
      objectReference: {fileID: 0}
    - target: {fileID: 7067751086999654233, guid: 1716e0e1a13fadf4a9071349621d216f, type: 3}
      propertyPath: m_LocalEulerAnglesHint.x
      value: 0
      objectReference: {fileID: 0}
    - target: {fileID: 7067751086999654233, guid: 1716e0e1a13fadf4a9071349621d216f, type: 3}
      propertyPath: m_LocalEulerAnglesHint.y
      value: 0
      objectReference: {fileID: 0}
    - target: {fileID: 7067751086999654233, guid: 1716e0e1a13fadf4a9071349621d216f, type: 3}
      propertyPath: m_LocalEulerAnglesHint.z
      value: 0
      objectReference: {fileID: 0}
    m_RemovedComponents: []
  m_SourcePrefab: {fileID: 100100000, guid: 1716e0e1a13fadf4a9071349621d216f, type: 3}
--- !u!1001 &7375688728125456399
PrefabInstance:
  m_ObjectHideFlags: 0
  serializedVersion: 2
  m_Modification:
    m_TransformParent: {fileID: 0}
    m_Modifications:
    - target: {fileID: 7375688728127806535, guid: 897571876cc91b84488df15b8a653f91, type: 3}
      propertyPath: m_RootOrder
      value: 5
      objectReference: {fileID: 0}
    - target: {fileID: 7375688728127806535, guid: 897571876cc91b84488df15b8a653f91, type: 3}
      propertyPath: m_LocalPosition.x
      value: 1.25
      objectReference: {fileID: 0}
    - target: {fileID: 7375688728127806535, guid: 897571876cc91b84488df15b8a653f91, type: 3}
      propertyPath: m_LocalPosition.y
      value: 0
      objectReference: {fileID: 0}
    - target: {fileID: 7375688728127806535, guid: 897571876cc91b84488df15b8a653f91, type: 3}
      propertyPath: m_LocalPosition.z
      value: 7.25
      objectReference: {fileID: 0}
    - target: {fileID: 7375688728127806535, guid: 897571876cc91b84488df15b8a653f91, type: 3}
      propertyPath: m_LocalRotation.w
      value: 1
      objectReference: {fileID: 0}
    - target: {fileID: 7375688728127806535, guid: 897571876cc91b84488df15b8a653f91, type: 3}
      propertyPath: m_LocalRotation.x
      value: 0
      objectReference: {fileID: 0}
    - target: {fileID: 7375688728127806535, guid: 897571876cc91b84488df15b8a653f91, type: 3}
      propertyPath: m_LocalRotation.y
      value: 0
      objectReference: {fileID: 0}
    - target: {fileID: 7375688728127806535, guid: 897571876cc91b84488df15b8a653f91, type: 3}
      propertyPath: m_LocalRotation.z
      value: 0
      objectReference: {fileID: 0}
    - target: {fileID: 7375688728127806535, guid: 897571876cc91b84488df15b8a653f91, type: 3}
      propertyPath: m_LocalEulerAnglesHint.x
      value: 0
      objectReference: {fileID: 0}
    - target: {fileID: 7375688728127806535, guid: 897571876cc91b84488df15b8a653f91, type: 3}
      propertyPath: m_LocalEulerAnglesHint.y
      value: 0
      objectReference: {fileID: 0}
    - target: {fileID: 7375688728127806535, guid: 897571876cc91b84488df15b8a653f91, type: 3}
      propertyPath: m_LocalEulerAnglesHint.z
      value: 0
      objectReference: {fileID: 0}
    - target: {fileID: 7375688728127806536, guid: 897571876cc91b84488df15b8a653f91, type: 3}
      propertyPath: m_Name
      value: L Tables
      objectReference: {fileID: 0}
    m_RemovedComponents: []
  m_SourcePrefab: {fileID: 100100000, guid: 897571876cc91b84488df15b8a653f91, type: 3}
