%YAML 1.1
%TAG !u! tag:unity3d.com,2011:
--- !u!114 &11400000
MonoBehaviour:
  m_ObjectHideFlags: 0
  m_CorrespondingSourceObject: {fileID: 0}
  m_PrefabInstance: {fileID: 0}
  m_PrefabAsset: {fileID: 0}
  m_GameObject: {fileID: 0}
  m_Enabled: 1
  m_EditorHideFlags: 0
  m_Script: {fileID: -1893448595, guid: a040fb66244a7f54289914d98ea4ef7d, type: 3}
  m_Name: BadEnding
  m_EditorClassIdentifier: 
  _data:
    _json: '{"graph":{"variables":{"collection":{"$content":[],"$version":"A"},"$version":"A"},"controlInputDefinitions":[{"key":"Enter","label":null,"summary":null,"hideLabel":false}],"controlOutputDefinitions":[{"key":"Exit","label":null,"summary":null,"hideLabel":false}],"valueInputDefinitions":[],"valueOutputDefinitions":[],"title":"BadEnding","summary":null,"pan":{"x":-31.34668,"y":15.92496},"zoom":1.0,"elements":[{"defaultValues":{},"position":{"x":-562.0,"y":-78.0},"guid":"6f365588-21c6-409e-9cf8-a7e5e16ed474","$version":"A","$type":"Bolt.GraphInput","$id":"11"},{"defaultValues":{},"position":{"x":216.0,"y":-13.0},"guid":"71966ecd-899c-44a3-9e17-71749d4a6abb","$version":"A","$type":"Bolt.GraphOutput","$id":"13"},{"argumentCount":0,"defaultValues":{"name":{"$content":"BadEnding","$type":"System.String"},"target":null},"position":{"x":38.0,"y":-161.0},"guid":"2878190c-31d3-4e9d-ba70-7fdf347be7e8","$version":"A","$type":"Bolt.TriggerCustomEvent","$id":"15"},{"defaultValues":{},"position":{"x":-160.0,"y":-27.0},"guid":"a43938b3-bde4-4162-807b-d4eaf6f9f0f2","$version":"A","$type":"Bolt.Branch","$id":"17"},{"numeric":true,"defaultValues":{"b":{"$content":3.0,"$type":"System.Single"}},"position":{"x":-357.0,"y":94.0},"guid":"74a9838d-8f8d-49a1-be01-9a007d751402","$version":"A","$type":"Bolt.GreaterOrEqual","$id":"19"},{"specifyFallback":false,"kind":"Scene","defaultValues":{"name":{"$content":"Bad_Ending_Counter","$type":"System.String"}},"position":{"x":-589.0,"y":167.0},"guid":"f2ad2d0a-2359-45dc-887d-44f69809d89c","$version":"A","$type":"Bolt.GetVariable","$id":"21"},{"sourceUnit":{"$ref":"17"},"sourceKey":"ifTrue","destinationUnit":{"$ref":"15"},"destinationKey":"enter","guid":"808d1201-398a-488c-ae9b-ef0c4749ce0c","$type":"Bolt.ControlConnection"},{"sourceUnit":{"$ref":"11"},"sourceKey":"Enter","destinationUnit":{"$ref":"17"},"destinationKey":"enter","guid":"f2a2239d-55d0-4cd5-84e0-fb51a77af075","$type":"Bolt.ControlConnection"},{"sourceUnit":{"$ref":"17"},"sourceKey":"ifFalse","destinationUnit":{"$ref":"13"},"destinationKey":"Exit","guid":"8f6f3968-46f4-4c8a-a261-8e0b129c3694","$type":"Bolt.ControlConnection"},{"sourceUnit":{"$ref":"19"},"sourceKey":"comparison","destinationUnit":{"$ref":"17"},"destinationKey":"condition","guid":"4e659ab3-99c6-48f1-8012-7214474bd49a","$type":"Bolt.ValueConnection"},{"sourceUnit":{"$ref":"21"},"sourceKey":"value","destinationUnit":{"$ref":"19"},"destinationKey":"a","guid":"255ab142-ccaf-4666-acb7-c2b1314ea52d","$type":"Bolt.ValueConnection"}],"$version":"A"}}'
    _objectReferences: []
